Project 1: Health Across the States
…
To visualize the clustering, I made a table of all pairwise variable combinations. From this table, the most interesting and relavant graphs/correlations were those between percent diabetic and the various BMI categories. It appeared that the red cluster was states with higher obesity and diabetic rates, while the blue cluster was the states with lower rates of diabetes and higher rates for normal weight. The high correlation values between the obese category and the diabetic variable, as well as between the normal weight category and the diabetic category, suggest that there is a strong incidence of higher diabetes rates when obseities rates rise, and a strong incidence of lower diabetes rates when normal weight rates rise.

To compare and see which states belonged to which clusters, I also printed out a sample list of thirty states with their respective cluster assignments. It seems that these assignments aligned closely with regional assignments, which we know from the plots in the "Visualization" above align closely with differences in attribute rates. This seems to support the identification of the clusters given above.

projdata %>% mutate(cluster = pam2$clustering) %>% group_by(cluster, 
    Region) %>% select(1, 7, 10) %>% arrange(Region) %>% print(n = 30)

## # A tibble: 50 x 3
## # Groups:   cluster, Region [8]
##    LocationDesc         Region    cluster
##    <chr>                <chr>       <int>
##  1 Illinois             Midwest         1
##  2 Indiana              Midwest         1
##  3 Iowa                 Midwest         1
##  4 Kansas               Midwest         1
##  5 Michigan             Midwest         1
##  6 Minnesota            Midwest         2
##  7 Missouri             Midwest         1
##  8 Nebraska             Midwest         1
##  9 North Dakota         Midwest         1
## 10 Ohio                 Midwest         1
## 11 South Dakota         Midwest         1
## 12 Wisconsin            Midwest         1
## 13 Connecticut          Northeast       2
## 14 Maine                Northeast       1
## 15 Massachusetts        Northeast       2
## 16 New Hampshire        Northeast       2
## 17 New York             Northeast       2
## 18 Pennsylvania         Northeast       1
## 19 Rhode Island         Northeast       2
## 20 Vermont              Northeast       2
## 21 Alabama              South           1
## 22 Arkansas             South           1
## 23 Delaware             South           1
## 24 District of Columbia South           2
## 25 Florida              South           2
## 26 Georgia              South           1
## 27 Kentucky             South           1
## 28 Louisiana            South           1
## 29 Maryland             South           1
## 30 Mississippi          South           1
## # … with 20 more rows
…
